"Source","Target","Label"
"14bbedd1-2d4d-418b-af10-731839eb672e","848ceec9-5e7b-4f24-a9d2-b58521dbaa96","relation"
"993d3629-6b80-4b99-9795-0486b1514bc9","32760630-a55a-4b3b-8c0e-ff8b3f71e5a3","relation"
"5d3ea037-b99f-4698-88bb-a136774a5617","f292bb3c-01d4-4437-98e3-831f7d634c23","relation"
"5d3ea037-b99f-4698-88bb-a136774a5617","47ec9139-1bf7-40bb-9795-c72f9b0be06b","relation"
"7162bf94-f714-4ff8-9242-dd2a0f6a7401","e3c343cf-e522-4e0c-8706-49f9a656b118","relation"
"7162bf94-f714-4ff8-9242-dd2a0f6a7401","a3e649a7-351a-45df-b126-765d5da46fca","relation"
"4eefad1e-9c0e-4434-9097-e00237370fb2","a29a0c5d-2ba5-4497-984d-4f5cb2cbbb4a","relation"
"4eefad1e-9c0e-4434-9097-e00237370fb2","47ec9139-1bf7-40bb-9795-c72f9b0be06b","relation"
"4c172e03-8c15-43f6-a12a-abf89327d763","a29a0c5d-2ba5-4497-984d-4f5cb2cbbb4a","relation"
"c46fea47-4d71-4e69-8304-790ea5abb707","a29a0c5d-2ba5-4497-984d-4f5cb2cbbb4a","relation"
"ee259ef1-5347-4c15-8214-b177936de123","f292bb3c-01d4-4437-98e3-831f7d634c23","relation"
"a14ae978-8bb2-46e1-b12a-779c5959dc8f","477c38ef-11a2-484d-85ea-411a30fadb47","relation"
"a14ae978-8bb2-46e1-b12a-779c5959dc8f","9a4006b6-c914-4853-b1cb-39a6839619a5","relation"
"c24f1de6-0ac8-4017-a21c-3c66758c6ce0","a29a0c5d-2ba5-4497-984d-4f5cb2cbbb4a","relation"
"825ed792-0517-47b6-863a-a2c43d493b2e","32760630-a55a-4b3b-8c0e-ff8b3f71e5a3","relation"
"825ed792-0517-47b6-863a-a2c43d493b2e","3416a12e-e46a-4ca1-99ef-43892e34ded7","relation"
"c2aa9b1d-919b-4e6b-abb5-ed430abf186c","f292bb3c-01d4-4437-98e3-831f7d634c23","relation"
"c2aa9b1d-919b-4e6b-abb5-ed430abf186c","e3c343cf-e522-4e0c-8706-49f9a656b118","relation"
"df62b920-b44d-49ac-908f-00bb06f2fc62","a29a0c5d-2ba5-4497-984d-4f5cb2cbbb4a","relation"
"df62b920-b44d-49ac-908f-00bb06f2fc62","e3c343cf-e522-4e0c-8706-49f9a656b118","relation"
"bd3db75d-a5d3-432d-9bc7-b46fe037382f","e3c343cf-e522-4e0c-8706-49f9a656b118","relation"
"bd3db75d-a5d3-432d-9bc7-b46fe037382f","3416a12e-e46a-4ca1-99ef-43892e34ded7","relation"
"5dc942fa-90c2-4094-81d3-b5609620adc1","ee259ef1-5347-4c15-8214-b177936de123","relation"
"5dc942fa-90c2-4094-81d3-b5609620adc1","a3e649a7-351a-45df-b126-765d5da46fca","relation"
"5dc942fa-90c2-4094-81d3-b5609620adc1","544e5553-a757-40f3-b624-7c1ff823bc6b","relation"
"47ec9139-1bf7-40bb-9795-c72f9b0be06b","9f74963b-4daf-46ae-b6fb-6e54f0ec5727","relation"
"47ec9139-1bf7-40bb-9795-c72f9b0be06b","f292bb3c-01d4-4437-98e3-831f7d634c23","relation"
"47ec9139-1bf7-40bb-9795-c72f9b0be06b","a29a0c5d-2ba5-4497-984d-4f5cb2cbbb4a","relation"
"47ec9139-1bf7-40bb-9795-c72f9b0be06b","cc8d2876-4bcc-4bc5-8f01-5be06455901a","relation"
"f0ed642d-e6b7-413d-9bef-b2e8214601e1","6f5615ce-6377-4646-8dc7-7ea2a7839700","relation"
"f0ed642d-e6b7-413d-9bef-b2e8214601e1","e3c343cf-e522-4e0c-8706-49f9a656b118","relation"
"f0ed642d-e6b7-413d-9bef-b2e8214601e1","32760630-a55a-4b3b-8c0e-ff8b3f71e5a3","relation"
"f0ed642d-e6b7-413d-9bef-b2e8214601e1","a3e649a7-351a-45df-b126-765d5da46fca","relation"
"bceb1c7e-1e90-44d3-bb50-48bd08a2bb68","e3c343cf-e522-4e0c-8706-49f9a656b118","relation"
"bceb1c7e-1e90-44d3-bb50-48bd08a2bb68","3416a12e-e46a-4ca1-99ef-43892e34ded7","relation"
"4ff2ea3d-21e5-423f-9a92-0da7d542f5f5","a29a0c5d-2ba5-4497-984d-4f5cb2cbbb4a","relation"
"32760630-a55a-4b3b-8c0e-ff8b3f71e5a3","9a4006b6-c914-4853-b1cb-39a6839619a5","relation"
"11071f89-1e9a-4c8c-aacb-af15330fc50a","3416a12e-e46a-4ca1-99ef-43892e34ded7","relation"
"11071f89-1e9a-4c8c-aacb-af15330fc50a","e3c343cf-e522-4e0c-8706-49f9a656b118","relation"
"20ac5b63-7e8d-484a-9b59-472281b5dd53","e3c343cf-e522-4e0c-8706-49f9a656b118","relation"
"20ac5b63-7e8d-484a-9b59-472281b5dd53","a3e649a7-351a-45df-b126-765d5da46fca","relation"
"20ac5b63-7e8d-484a-9b59-472281b5dd53","6f5615ce-6377-4646-8dc7-7ea2a7839700","relation"
"20ac5b63-7e8d-484a-9b59-472281b5dd53","7162bf94-f714-4ff8-9242-dd2a0f6a7401","relation"
"c532a5c5-abe6-47ed-a5ae-e9fa4100c0a5","4c172e03-8c15-43f6-a12a-abf89327d763","relation"
"c532a5c5-abe6-47ed-a5ae-e9fa4100c0a5","cc8d2876-4bcc-4bc5-8f01-5be06455901a","relation"
"6d17cc69-7887-452d-a2e4-0fa440d3763e","f292bb3c-01d4-4437-98e3-831f7d634c23","relation"
"6f5615ce-6377-4646-8dc7-7ea2a7839700","a3e649a7-351a-45df-b126-765d5da46fca","relation"
"477c38ef-11a2-484d-85ea-411a30fadb47","9a4006b6-c914-4853-b1cb-39a6839619a5","relation"
"477c38ef-11a2-484d-85ea-411a30fadb47","e3c343cf-e522-4e0c-8706-49f9a656b118","relation"
"477c38ef-11a2-484d-85ea-411a30fadb47","32760630-a55a-4b3b-8c0e-ff8b3f71e5a3","relation"
"477c38ef-11a2-484d-85ea-411a30fadb47","ee259ef1-5347-4c15-8214-b177936de123","relation"
"fffbe329-39f1-4036-8465-1a2c70c2ed7b","32760630-a55a-4b3b-8c0e-ff8b3f71e5a3","relation"
"fffbe329-39f1-4036-8465-1a2c70c2ed7b","f292bb3c-01d4-4437-98e3-831f7d634c23","relation"
"fffbe329-39f1-4036-8465-1a2c70c2ed7b","a29a0c5d-2ba5-4497-984d-4f5cb2cbbb4a","relation"
"19c39942-8b1a-4406-bca4-97ed07700c16","32760630-a55a-4b3b-8c0e-ff8b3f71e5a3","relation"
"19c39942-8b1a-4406-bca4-97ed07700c16","c46fea47-4d71-4e69-8304-790ea5abb707","relation"
"19c39942-8b1a-4406-bca4-97ed07700c16","a3e649a7-351a-45df-b126-765d5da46fca","relation"
"848ceec9-5e7b-4f24-a9d2-b58521dbaa96","32760630-a55a-4b3b-8c0e-ff8b3f71e5a3","relation"
"848ceec9-5e7b-4f24-a9d2-b58521dbaa96","6d17cc69-7887-452d-a2e4-0fa440d3763e","relation"
